<?xml version="1.0" encoding="UTF-8" standalone="no"?>
<svg
   xmlns:dc="http://purl.org/dc/elements/1.1/"
   xmlns:cc="http://creativecommons.org/ns#"
   xmlns:rdf="http://www.w3.org/1999/02/22-rdf-syntax-ns#"
   xmlns:svg="http://www.w3.org/2000/svg"
   xmlns="http://www.w3.org/2000/svg"
   id="svg8"
   version="1.1"
   viewBox="0 0 101.41171 14"
   height="14mm"
   width="101.41171mm">
  <defs
     id="defs2" />
  <metadata
     id="metadata5">
    <rdf:RDF>
      <cc:Work
         rdf:about="">
        <dc:format>image/svg+xml</dc:format>
        <dc:type
           rdf:resource="http://purl.org/dc/dcmitype/StillImage" />
        <dc:title></dc:title>
      </cc:Work>
    </rdf:RDF>
  </metadata>
  <g
     transform="translate(-21.590895,-129.61183)"
     id="layer1">
    <g
       style="fill:#ff0096"
       transform="translate(-5.2461567,102.48823)"
       id="g4497">
      <g
         transform="translate(0,-0.75778085)"
         id="g4516">
        <path
           id="path4485"
           d="m 83.195701,40.88094 c 0.314851,0 0.587409,-0.113101 0.819435,-0.337059 l -3.96677,-4.326979 -0.274613,0.215308 a 18.292781,19.955367 0 0 1 -0.722512,0.558133 c -0.185034,0.133927 -0.431158,0.270096 -0.738373,0.409149 -0.307508,0.139373 -0.59387,0.2089 -0.859672,0.2089 h -0.01527 c -0.265802,0 -0.552164,-0.06953 -0.859672,-0.2089 -0.307215,-0.139053 -0.553339,-0.275542 -0.738079,-0.409149 -0.185034,-0.133285 -0.425871,-0.319437 -0.722806,-0.558133 -0.08282,-0.066 -0.17446,-0.138733 -0.273732,-0.216269 l -3.96677,4.32794 a 1.1968448,1.305623 0 0 0 0.819435,0.337379 z M 71.235183,33.492235 A 4.1418172,4.5182567 0 0 1 70.446,32.750513 v 6.583544 l 3.495962,-3.813701 a 270.26664,294.83051 0 0 0 -2.706779,-2.028121 z m 12.429564,0 a 230.12785,251.0436 0 0 0 -2.713534,2.029403 L 84.446,39.334377 v -6.584185 a 4.3115782,4.7034469 0 0 1 -0.781253,0.741722 z"
           style="stroke-width:0.30676103" />
        <path
           id="path4487"
           d="M 83.195701,28.881383 H 71.696005 c -0.4012,0 -0.709589,0.148024 -0.925756,0.443111 -0.216166,0.295407 -0.323955,0.664826 -0.323955,1.107937 0,0.357885 0.143034,0.745567 0.429395,1.163366 0.286362,0.4178 0.591227,0.745567 0.914008,0.984264 0.177104,0.13649 0.710764,0.541473 1.601863,1.214309 a 517.6919,564.74364 0 0 1 1.258229,0.953826 c 0.306333,0.23293 0.570373,0.43446 0.788596,0.601708 l 0.1166,0.09067 0.215285,0.169491 c 0.169468,0.133606 0.309858,0.24126 0.422053,0.323602 0.111608,0.08266 0.247299,0.174937 0.406193,0.277144 a 2.3701932,2.5856142 0 0 0 0.449368,0.230046 c 0.140391,0.05126 0.270795,0.0769 0.390627,0.0769 h 0.01527 c 0.119831,0 0.249942,-0.02563 0.390627,-0.0769 0.140684,-0.05126 0.290473,-0.127518 0.449367,-0.230046 0.158601,-0.102527 0.293998,-0.194481 0.406193,-0.276824 0.112195,-0.08266 0.252586,-0.190316 0.422053,-0.323922 a 52.400067,57.16258 0 0 1 0.331886,-0.260164 l 0.790652,-0.599145 c 0.647618,-0.49085 1.601569,-1.213668 2.865672,-2.170698 a 3.715946,4.0536792 0 0 0 0.95307,-1.048023 C 84.318239,31.12289 84.446,30.693876 84.446,30.244998 c 0,-0.374866 -0.123943,-0.695905 -0.371242,-0.963117 -0.247299,-0.266892 -0.540416,-0.400498 -0.879057,-0.400498 z"
           style="stroke-width:0.30676103" />
      </g>
      <g
         transform="matrix(0.46477022,0,0,0.46581568,26.836707,23.803643)"
         id="g4491">
        <path
           d="m 29.448,30.9 -4.652,-4.653 c -0.927,-0.923 -2.461,-0.895 -3.42,0.064 l -2.344,2.343 A 68.569,68.569 0 0 1 18.57,28.397 C 17.09,27.577 15.064,26.453 12.932,24.32 10.794,22.182 9.669,20.153 8.847,18.672 8.76,18.515 8.677,18.364 8.595,18.22 l 1.573,-1.57 0.773,-0.775 c 0.96,-0.96 0.987,-2.494 0.062,-3.42 L 6.351,7.802 C 5.427,6.878 3.891,6.906 2.931,7.867 l -1.31,1.318 0.035,0.036 a 7.582,7.582 0 0 0 -1.08,1.905 7.9,7.9 0 0 0 -0.48,1.933 c -0.615,5.093 1.712,9.747 8.027,16.062 8.73,8.73 15.765,8.07 16.069,8.038 a 7.86,7.86 0 0 0 1.938,-0.487 7.556,7.556 0 0 0 1.899,-1.076 l 0.028,0.026 1.329,-1.3 c 0.958,-0.961 0.986,-2.496 0.062,-3.423 z"
           id="path4489" />
      </g>
      <g
         transform="matrix(0.31158472,0,0,0.31596111,62.796344,27.123602)"
         id="g4495">
        <path
           d="m 194.016,0 c -8.848,0 -16.047,7.199 -16.047,16.047 0,10.981 14.36,27.102 14.972,27.783 0.574,0.64 1.577,0.638 2.15,0 0.612,-0.681 14.972,-16.802 14.972,-27.783 C 210.063,7.199 202.865,0 194.016,0 Z m 0,24.12 c -4.452,0 -8.073,-3.621 -8.073,-8.073 0,-4.452 3.621,-8.074 8.073,-8.074 4.452,0 8.074,3.622 8.074,8.074 0,4.452 -3.622,8.074 -8.074,8.074 z"
           id="path4493" />
      </g>
    </g>
  </g>
</svg>
